…
ä¾ç”¢æ¥­åˆ¥åšå½™ç¸½

segment = group_by(Z1, business_segment) %>% summarise(
  noSellers = n(),
  totalRev = sum(Rev),
  avgItemsSold = mean(ItemsSold),
  avgPrice = totalRev/avgItemsSold,
  avgRev = mean(Rev),
  avgReview = mean(noReview),
  avgScore = mean(avgScore)
  ) %>% arrange( desc(totalRev) )
segment

# A tibble: 29 x 8
   business_segment noSellers totalRev avgItemsSold avgPrice avgRev avgReview
   <chr>                <int>    <dbl>        <dbl>    <dbl>  <dbl>     <dbl>
 1 watches                  3  117279.       198        592. 39093.    193.  
 2 health_beauty           45   90836.        18.2     4979.  2019.     15.7 
 3 household_utili~        44   51569.        12.8     4045.  1172.     11.4 
 4 audio_video_ele~        31   50265.         8.87    5666.  1621.      8.03
 5 small_appliances         7   47675.         9.86    4837.  6811.      9.71
 6 home_decor              44   44102.        10.3     4293.  1002.      8.23
 7 pet                     17   40499.        16.8     2407.  2382.     14.6 
 8 construction_to~        32   34539.         9.94    3476.  1079.      8.5 
 9 car_accessories         30   30175.         5.47    5520.  1006.      4.93
10 home_appliances          5   26241.        28.2      931.  5248.     27   
# ... with 19 more rows, and 1 more variable: avgScore <dbl>
…
